{
    "uuid": "gtk4-ding@smedius.gitlab.com",
    "name": "Gtk4 Desktop Icons NG (DING)",
    "description": "Adds Gtk4 icons to the Gnome desktop. Gtk4 Fork of the original Desktop Icons extension, with several enhancements.",
    "shell-version": ["42", "43", "44"],
    "url": "https://gitlab.com/smedius/desktop-icons-ng",
    "version": "37",
    "session-modes": ["user", "unlock-dialog"],
    "settings-schema": "org.gnome.shell.extensions.gtk4-ding",
    "gettext-domain": "gtk4-ding@smedius.gitlab.com"
  }
